lab1/lab1_input/step2/verilog_input/TB2.vcd
$date
	Tue Mar  1 19:36:00 2016
$end
$version
	Icarus Verilog
$end
$timescale
	1ps
$end
$scope module TB2 $end
$var wire 8 ! leds [7:0] $end
$var reg 1 " clk $end
$var reg 1 # rst $end
$scope module DUT $end
$var wire 1 $ clk $end
$var wire 1 % clk_en $end
$var wire 8 & gray_out [8:1] $end
$var wire 1 ' rst $end
$var integer 32 ( i [31:0] $end
$var reg 1 ) isZero $end
$var integer 32 * j [31:0] $end
$var reg 9 + state [8:0] $end
$var reg 9 , toggle [8:0] $end
$upscope $end
$upscope $end
$enddefinitions $end
#0
$dumpvars
b11 ,
b1 +
b11111111111111111111111111111111 *
0)
b1000 (
1'
b0 &
1%
0$
1#
0"
b0 !
$end
#5000
b101 ,
b11111111111111111111111111111111 *
0)
b1000 (
b1 !
b1 &
b10 +
1"
1$
0#
0'
#10000
0"
0$
#15000
b11 ,
b11111111111111111111111111111111 *
0)
b1000 (
b11 !
b11 &
b111 +
1"
1$
#20000
0"
0$
#25000
b1001 ,
b11111111111111111111111111111111 *
0)
b1000 (
b10 !
b10 &
b100 +
1"
1$
#30000
0"
0$
#35000
b11 ,
b11111111111111111111111111111111 *
0)
b1000 (
b110 !
b110 &
b1101 +
1"
1$
#40000
0"
0$
#45000
b101 ,
b11111111111111111111111111111111 *
0)
b1000 (
b111 !
b111 &
b1110 +
1"
1$
#50000
0"
0$
#55000
b11 ,
b11111111111111111111111111111111 *
0)
b1000 (
b101 !
b101 &
b1011 +
1"
1$
#60000
0"
0$
#65000
b10001 ,
b11111111111111111111111111111111 *
0)
b1000 (
b100 !
b100 &
b1000 +
1"
1$
#70000
0"
0$
#75000
b11 ,
b11111111111111111111111111111111 *
0)
b1000 (
b1100 !
b1100 &
b11001 +
1"
1$
#80000
0"
0$
#85000
b101 ,
b11111111111111111111111111111111 *
0)
b1000 (
b1101 !
b1101 &
b11010 +
1"
1$
#90000
0"
0$
#95000
b11 ,
b11111111111111111111111111111111 *
0)
b1000 (
b1111 !
b1111 &
b11111 +
1"
1$
#100000
0"
0$
#105000
b1001 ,
b11111111111111111111111111111111 *
0)
b1000 (
b1110 !
b1110 &
b11100 +
1"
1$
#110000
0"
0$
#115000
b11 ,
b11111111111111111111111111111111 *
0)
b1000 (
b1010 !
b1010 &
b10101 +
1"
1$
#120000
0"
0$
#125000
b101 ,
b11111111111111111111111111111111 *
0)
b1000 (
b1011 !
b1011 &
b10110 +
1"
1$
#130000
0"
0$
#135000
b11 ,
b11111111111111111111111111111111 *
0)
b1000 (
b1001 !
b1001 &
b10011 +
1"
1$
#140000
0"
0$
#145000
b100001 ,
b11111111111111111111111111111111 *
0)
b1000 (
b1000 !
b1000 &
b10000 +
1"
1$
#150000
0"
0$
#155000
b11 ,
b11111111111111111111111111111111 *
0)
b1000 (
b11000 !
b11000 &
b110001 +
1"
1$
#160000
0"
0$
#165000
b101 ,
b11111111111111111111111111111111 *
0)
b1000 (
b11001 !
b11001 &
b110010 +
1"
1$
#170000
0"
0$
#175000
b11 ,
b11111111111111111111111111111111 *
0)
b1000 (
b11011 !
b11011 &
b110111 +
1"
1$
#180000
0"
0$
#185000
b1001 ,
b11111111111111111111111111111111 *
0)
b1000 (
b11010 !
b11010 &
b110100 +
1"
1$
#190000
0"
0$
#195000
b11 ,
b11111111111111111111111111111111 *
0)
b1000 (
b11110 !
b11110 &
b111101 +
1"
1$
#200000
0"
0$
#205000
b101 ,
b11111111111111111111111111111111 *
0)
b1000 (
b11111 !
b11111 &
b111110 +
1"
1$
